…
1.  Provide a brief description of the data set and a few of the variables (use `?flights`). Is `flights` a tibble?

2.  Extract a tibble containing American Airlines (AA) flights to LAX that departed before 1030. Return only the columns `month`, `day`, `dep_time`, `dest`, and `carrier`. How many flights fit these criteria?

3. Extract a tibble containing all flights on Christmas day; 12/25/2013. **What is the total number of
miles** traveled across all flights on this day?

4. The air_time variable gives the duration of the flight in minutes. Create a tibble containing flights on
Christmas day and only the variables month, day, origin, dest, and air_time_hour where the last
variable gives the duration of the flight in *hours*.

```
## A tibble: 719 x 5
## month   day  origin  dest  air_time_hour
## <int> <int> <chr>  <chr>        <dbl>
1    12    25   EWR   CLT           1.63
2    12    25   EWR   IAH           3.38
3    12    25   JFK   MIA           2.43
4    12    25   JFK   BQN           3.18
5    12    25   LGA   ORD           2.05
6    12    25   LGA   DTW           1.47
7    12    25   LGA   ATL           1.97
8    12    25   LGA   FLL           2.45
9    12    25   EWR   FLL           2.48
10   12    25   JFK   MCO           2.28
# . . . with 709 more rows
```
…
